{
  "kind": "Datasource",
  "metadata": {
    "name": "PrometheusDemoLocal",
    "createdAt": "2023-11-27T13:49:21.458734Z",
    "updatedAt": "2023-11-27T13:49:21.458734Z",
    "version": 0,
    "project": "workshopproject"
  },
  "spec": {
    "display": {
      "name": "localhost:9090"
    },
    "default": false,
    "plugin": {
      "kind": "PrometheusDatasource",
      "spec": {
        "directUrl": "http://localhost:9090"
      }
    }
  }
}
